BWAM Analytics - 1 Untitled
…
Running get_data_dictionary() with all the default arguments will return all table and column definitions in the data warehouse.

(dictionary <- nexus::get_data_dictionary())

# A tibble: 218 × 11
   table_name column_name    examples   definition  db_data_type character_limit
   <chr>      <chr>          <list>     <chr>       <chr>                  <dbl>
 1 BASIN      BASIN          <chr [17]> A unique 2… NUMBER                    NA
 2 BASIN      BASIN_NAME     <chr [17]> The names … VARCHAR2(50)              50
 3 BASIN      <NA>           <NULL>     This table… <NA>                      NA
 4 EVENT      EVENT_DATETIME <chr [4]>  The date a… DATETIME                  NA
 5 EVENT      EVENT_ID       <chr [10]> A unique s… VARCHAR2(50)              50
 6 EVENT      PROJECT        <chr [10]> A monitori… VARCHAR2(10…             100
 7 EVENT      QAPP_ID        <chr [5]>  The Qualit… VARCHAR2(50)              50
 8 EVENT      SITE_ID        <dbl [10]> A unique s… NUMBER                    NA
 9 EVENT      <NA>           <NULL>     A table re… <NA>                      NA
10 PARAMETER  CASRN          <chr [10]> A CAS Regi… VARCHAR2(50)              50
# ℹ 208 more rows
# ℹ 5 more variables: not_null <lgl>, surrogate_key <lgl>, primary_key <chr>,
#   foreign_key <chr>, parent_table <chr>
…
# 1
dplyr::tbl(con,
           I("WQMA_OWNER.EVENT")) |> 
# 2
  dplyr::filter(
    dplyr::between(
      x = EVENT_DATETIME,
      left = to_date("2022-07-01", "YYYY-MM-DD HH24:MI:SS"),
      right = to_date("2022-07-07", "YYYY-MM-DD HH24:MI:SS")
    )
  ) |> 
# 3
  dplyr::collect()

# A tibble: 215 × 9
   EVENT_ID      EVENT_DATETIME      SITE_ID PROJECT QAPP_ID CREATE_DATE        
   <chr>         <dttm>                <dbl> <chr>   <chr>   <dttm>             
 1 13-FDRY-0.4_… 2022-07-06 09:15:00   27578 Undefi… Unknown 2024-03-26 14:26:14
 2 13-STNY-0.8_… 2022-07-06 15:00:00   28025 Undefi… Unknown 2024-03-26 14:26:14
 3 13-STNY-0.8_… 2022-07-05 15:00:00   28025 Undefi… Unknown 2024-03-26 14:26:14
 4 13-GUNK-40.3… 2022-07-05 13:15:00   27611 PWS pr… Unknown 2024-03-26 14:26:11
 5 13-WKLEI_T4-… 2022-07-05 15:30:00   28182 PWS pr… Unknown 2024-03-26 14:26:11
 6 14-COUL-0.9_… 2022-07-05 10:00:00   28349 PWS pr… Unknown 2024-03-26 14:26:11
 7 07-SXML-2.2_… 2022-07-06 11:45:00   25790 PWS pr… Unknown 2024-03-26 14:26:11
 8 07-SXML-8.0_… 2022-07-06 10:30:00   25791 PWS pr… Unknown 2024-03-26 14:26:11
 9 07-SXML-12.4… 2022-07-06 09:15:00   25789 PWS pr… Unknown 2024-03-26 14:26:11
10 13-CRUM-1.5_… 2022-07-06 11:00:00   27545 PWS pr… Unknown 2024-03-26 14:26:11
# ℹ 205 more rows
# ℹ 3 more variables: END_DATE <dttm>, UPDATE_DATE <dttm>,
#   UPDATED_BY_GUID <chr>
…
    REPLICATE,
    SAMPLE_METHOD,
    SAMPLE_METHOD_DESCRIPTION,
    PARAMETER_NAME,
    RESULT_VALUE,
    UNIT,
    LATITUDE,
    LONGITUDE,
    BASIN,
    BASIN_NAME,
    WATERBODY_NAME,
    WATERBODY_TYPE
  ))

# A tibble: 1,693 × 14
   EVENT_ID             SITE_CODE REPLICATE SAMPLE_METHOD SAMPLE_METHOD_DESCRI…¹
   <chr>                <chr>     <chr>     <chr>         <chr>                 
 1 07-ONON-1.0_1986090… 07-ONON-… 1         survey        sample_event_info_sur…
 2 07-ONON-1.0_1986090… 07-ONON-… 1         multiprobe    unknown               
 3 07-ONON-1.0_1986090… 07-ONON-… 1         multiprobe    unknown               
 4 07-ONON-1.0_1986090… 07-ONON-… 1         multiprobe    unknown               
 5 07-ONON-1.0_1986090… 07-ONON-… 1         multiprobe    unknown               
 6 07-ONON-1.0_1986090… 07-ONON-… 1         survey        macroinvertebrate_fie…
 7 07-ONON-1.0_1986090… 07-ONON-… 1         survey        macroinvertebrate_fie…
 8 07-ONON-1.0_1986090… 07-ONON-… 1         survey        macroinvertebrate_fie…
 9 07-ONON-1.0_1986090… 07-ONON-… 1         survey        macroinvertebrate_fie…
10 07-ONON-1.0_1986090… 07-ONON-… 1         survey        macroinvertebrate_fie…
# ℹ 1,683 more rows
# ℹ abbreviated name: ¹​SAMPLE_METHOD_DESCRIPTION
# ℹ 9 more variables: PARAMETER_NAME <chr>, RESULT_VALUE <dbl>, UNIT <chr>,
#   LATITUDE <dbl>, LONGITUDE <dbl>, BASIN <chr>, BASIN_NAME <chr>,
#   WATERBODY_NAME <chr>, WATERBODY_TYPE <chr>
…
    SITE_CODE,
    REPLICATE,
    SAMPLE_METHOD,
    SAMPLE_METHOD_DESCRIPTION,
    PARAMETER_NAME,
    RESULT_VALUE,
    UNIT,
    LATITUDE,
    LONGITUDE,
    BASIN,
    WATERBODY_NAME,
    WATERBODY_TYPE
  ))

# A tibble: 18,911 × 13
   EVENT_ID             SITE_CODE REPLICATE SAMPLE_METHOD SAMPLE_METHOD_DESCRI…¹
   <chr>                <chr>     <chr>     <chr>         <chr>                 
 1 13-ROND-9.9_2018061… 13-ROND-… 1         unknown       unknown               
 2 13-ROND-9.9_2018061… 13-ROND-… 1         unknown       unknown               
 3 13-ROND-9.9_2018061… 13-ROND-… 1         unknown       unknown               
 4 13-ROND-9.9_2018061… 13-ROND-… 1         unknown       unknown               
 5 13-ROND-9.9_2018061… 13-ROND-… 1         unknown       unknown               
 6 13-ROND-9.9_2018061… 13-ROND-… 1         unknown       unknown               
 7 13-ROND-9.9_2018061… 13-ROND-… 1         unknown       unknown               
 8 13-ROND-9.9_2018061… 13-ROND-… 1         unknown       unknown               
 9 13-ROND-9.9_2018061… 13-ROND-… 1         unknown       unknown               
10 13-ROND-9.9_2018061… 13-ROND-… 1         unknown       unknown               
# ℹ 18,901 more rows
# ℹ abbreviated name: ¹​SAMPLE_METHOD_DESCRIPTION
# ℹ 8 more variables: PARAMETER_NAME <chr>, RESULT_VALUE <dbl>, UNIT <chr>,
#   LATITUDE <dbl>, LONGITUDE <dbl>, BASIN <chr>, WATERBODY_NAME <chr>,
#   WATERBODY_TYPE <chr>
…
    REPLICATE,
    SAMPLE_METHOD,
    SAMPLE_METHOD_DESCRIPTION,
    PARAMETER_NAME,
    RESULT_VALUE,
    UNIT,
    LATITUDE,
    LONGITUDE,
    BASIN,
    BASIN_NAME,
    WATERBODY_NAME,
    WATERBODY_TYPE
  ))

# A tibble: 623 × 14
   EVENT_ID             SITE_CODE REPLICATE SAMPLE_METHOD SAMPLE_METHOD_DESCRI…¹
   <chr>                <chr>     <chr>     <chr>         <chr>                 
 1 01-BUFF-1.7_2018041… 01-BUFF-… 1         unknown       unknown               
 2 01-BUFF-1.7_2018061… 01-BUFF-… 1         unknown       unknown               
 3 01-BUFF-1.7_2018081… 01-BUFF-… 1         unknown       unknown               
 4 01-BUFF-1.7_2018101… 01-BUFF-… 1         unknown       unknown               
 5 01-BUFF-1.7_2019041… 01-BUFF-… 1         unknown       unknown               
 6 01-BUFF-1.7_2019061… 01-BUFF-… 1         unknown       unknown               
 7 01-BUFF-1.7_2019081… 01-BUFF-… 1         unknown       unknown               
 8 01-BUFF-1.7_2019102… 01-BUFF-… 1         unknown       unknown               
 9 01-BUFF-1.7_2020042… 01-BUFF-… 1         unknown       unknown               
10 01-BUFF-1.7_2020061… 01-BUFF-… 1         unknown       unknown               
# ℹ 613 more rows
# ℹ abbreviated name: ¹​SAMPLE_METHOD_DESCRIPTION
# ℹ 9 more variables: PARAMETER_NAME <chr>, RESULT_VALUE <dbl>, UNIT <chr>,
#   LATITUDE <dbl>, LONGITUDE <dbl>, BASIN <chr>, BASIN_NAME <chr>,
#   WATERBODY_NAME <chr>, WATERBODY_TYPE <chr>
…
